Epigenome_Mnemonic
	ESDR.CD56.ECTO
	ESDR.CD184.ENDO
	BLD.PER.MONUC.PC
	ESC.H9
	MUS.TRNK.FET
	BLD.K562.CNCR
	GI.STMC.FET
	BRN.DL.PRFRNTL.CRTX
	FAT.ADIP.DR.MSC
	ESC.4STAR
	ESDR.H1.MSC
	BRN.NHA
	ESDR.CD56.MESO
	LNG.IMR90
	ESC.H1
	VAS.AOR
	ESDR.H1.NEUR.PROG
	ESC.HUES6
	ESDR.H1.BMP4.MESO
	BLD.CD4.CD25M.IL17P.PL.TPC
	IPSC.20B
	BRN.ANT.CAUD
	BLD.MOB.CD34.PC.M
	GI.CLN.MUC
	ESDR.H9.NEUR.PROG
	HRT.VENT.L
	BLD.DND41.CNCR
	THYM
	MUS.HSMM
	SKIN.PEN.FRSK.FIB.01
	LIV.HEPG2.CNCR
	MUS.SAT
	VAS.HUVEC
	LIV.ADLT
	BRST.HMEC
	MUS.SKLT.M
	GI.S.INT
	GI.CLN.SIG
	LNG.FET
	BLD.CD3.CPC
	BONE.OSTEO
	BLD.CD8.NPC
	BLD.GM12878
	STRM.MRW.MSC
	SKIN.PEN.FRSK.MEL.03
	GI.DUO.SM.MUS
	BLD.CD4.CD25M.IL17M.PL.TPC
	CRVX.HELAS3.CNCR
	IPSC.15b
	PANC.ISLT
	STRM.CHON.MRW.DR.MSC
	LNG.A549.ETOH002.CNCR
	MUS.LEG.FET
	PLCNT.AMN
	SKIN.PEN.FRSK.FIB.02
	BLD.CD4.CD25I.CD127.TMEMPC
	HRT.ATR.R
	GI.STMC.MUS
	BLD.CD4.CD25M.TPC
	SKIN.NHEK
	BRN.ANG.GYR
	GI.RECT.MUC.29
	PLCNT.FET
	GI.S.INT.FET
	SKIN.PEN.FRSK.KER.02
	BRST.MYO
	BLD.CD14.PC
	ESDR.H1.BMP4.TROP
	ADRL.GLND.FET
	BLD.CD4.CD25.CD127M.TREGPC
	ESC.HUES48
	GI.L.INT.FET
	MUS.HSMMT
	SKIN.NHDFAD
	BRN.HIPP.MID
	GI.ESO
	OVRY
	IPSC.DF.19.11
	LNG.NHLF
	MUS.PSOAS
	BLD.CD34.CC
	BLD.CD4.NPC
	BRN.CING.GYR
	BRN.FET.F
	ESC.WA7
	BLD.CD3.PPC
	GI.STMC.GAST
	HRT.FET
	FAT.MSC.DR.ADIP
	BRN.GRM.MTRX
	GI.RECT.MUC.31
	ESC.HUES64
	GI.STMC.MUC
	BRN.GANGEM.DR.NRSPHR
	THYM.FET
	KID.FET
	SKIN.PEN.FRSK.MEL.01
	BRN.CRTX.DR.NRSPHR
	BRN.FET.M
	BLD.CD8.MPC
	GI.CLN.SM.MUS
	FAT.ADIP.NUC
	ESC.I3
	BLD.CD19.PPC
	BLD.CD4.MPC
	GI.DUO.MUC
	BLD.MOB.CD34.PC.F
	BLD.CD19.CPC
	IPSC.DF.6.9
	BRST.HMEC.35
	BRN.INF.TMP
	SKIN.PEN.FRSK.KER.03
	HRT.VNT.R
	SPLN
	BLD.CD34.PC
	IPSC.18
	ESDR.H9.NEUR
	BLD.CD4.CD25M.CD45RA.NPC
	BLD.CD4.CD25M.CD45RO.MPC
	GI.RECT.SM.MUS
	PANC
	LNG
	BLD.CD14.MONO
	BRN.SUB.NIG
	BLD.CD56.PC
	BLD.CD15.PC
	MUS.SKLT.F

ANATOMY
	ESC_DERIVED
	BLOOD
	ESC
	MUSCLE
	GI_STOMACH
	BRAIN
	FAT
	LUNG
	VASCULAR
	IPSC
	GI_COLON
	HEART
	THYMUS
	SKIN
	LIVER
	BREAST
	GI_INTESTINE
	BONE
	STROMAL_CONNECTIVE
	GI_DUODENUM
	CERVIX
	PANCREAS
	MUSCLE_LEG
	PLACENTA
	GI_RECTUM
	ADRENAL
	GI_ESOPHAGUS
	OVARY
	KIDNEY
	SPLEEN

DONOR_/_SAMPLE_ALIAS
	BioSam_1247;BioSam_1248;BioSam_707
	262;263
	TC010;TC012
	H9-01;H9-02;H9-04
	H-24851
	K562
	H-24639;H-24683;H-24754;H-24776
	112;149
	1;92;93
	UCSF-4*_Cell_Line_hESC
	MSC-01;MSC-02
	NH-A
	BioSam_1249;BioSam_1250;BioSam_575;BioSam_577
	IMR90_r1;IMR90-04;IMR90-05;IMR90-06;IMR90-07
	56;68;69;27276;27277;35081;35082;35083;CDI-01;H1-07;H1-09;H1-10;H1-12;H1-13;hESC-01;HS0995;HS0998-1;HS1032-1;HS1345-1;HS1346-1;HS1347-1
	STL003
	NPC-03;NPC-04;NPC-05;NPC-06
	199;207
	BMP4-03;BMP4-04;BMP4-07;BMP4-08
	62;332
	66;67;BioSam_174
	RO_01562
	32
	113
	STL001;STL003
	Dnd41
	STL001
	HSMM
	skin01
	HepG2
	hSKM-1;hSKM-2;hSKM-3
	HUVEC
	3;4;5
	HMEC
	63
	H-22727;UW_H23266;UW_H23284
	CD3_39661;CD3_39804;CD3_39811;CD3_39840
	Osteobl
	Donor_100_7_pooled_leukopaks_Jan_7_2011;Donor_101_8_pooled_leukopaks_Jan_20_2011;TC001;TC010
	GM12878
	57;58;59;60
	skin03
	160;174_REMC_28
	HeLa-S3
	62
	pancreatic_islets_normal_0/0/00;pancreatic_islets_normal_3/27/09;ZD4_273
	A549
	H-24644
	CTL02
	skin02
	28
	NHEK
	29
	H-24996
	H-24595
	RM066;RM080
	RO_01701;RO_01721
	BMP4-05;BMP4-06;BMP4-09
	H-24800
	197;201;BioSam_824
	HSMMtube
	NHDF-Ad
	149;150
	STL002
	iPS-19.11-01;iPS-19.11-02
	NHLF
	123;cultured_CD34_2_20_09
	Donor_100_7_pooled_leukopaks_Jan_7_2011;Donor_101_8_pooled_leukopaks_Jan_20_2011;TC001
	HuFNSC01;HuFNSC02
	58;35206;35207;35208;35210;36544
	RO_01679;RO_01701
	H-22727;H-23524;UW_H23914
	92;93
	HuFGM02
	31
	196;202;BioSam_825
	157
	HuFNSC02
	H-22676
	H-22510;UW_H22676
	100_7_pooled_leukopaks_Jan_7_2011;101_8_pooled_leukopaks_Jan_20_2011
	156;83_REMC_18
	7;92;93;94;95
	60;31436;35589;35592;35593;35594;40338;40339;40340;40585;40586;42133
	20;Donor_100_7_pooled_leukopaks_Jan_7_2011;Donor_101_8_pooled_leukopaks_Jan_20_2011
	61
	RO_01480;RO_01508;RO_01536;RO_01549;UW_RO_01480
	130;CD19_12/22/08;CD19_12/29/08;CD19_2/20/09;CD19_6/26/08;CD19_8/1/08
	iPS-6.9-01;iPS-6.9-02
	RM035
	CD34_39629;CD34_39661;CD34_39804;CD34_39811;CD34_39889
	39791;46575;46576;46578;46579;46580;BioSam_173
	30
	RO01746
	23

Epigenome_name_(from_EDACC_Release_9_directory)
	hESC_Derived_CD56+_Ectoderm_Cultured_Cells
	hESC_Derived_CD184+_Endoderm_Cultured_Cells
	Peripheral_Blood_Mononuclear_Primary_Cells
	H9_Cell_Line
	Fetal_Muscle_Trunk
	K562_Leukemia
	Fetal_Stomach
	Brain_Mid_Frontal_Lobe
	Adipose_Derived_Mesenchymal_Stem_Cell_Cultured_Cells
	4star
	H1_Derived_Mesenchymal_Stem_Cells
	NH-A_Astrocytes
	hESC_Derived_CD56+_Mesoderm_Cultured_Cells
	IMR90_Cell_Line
	H1_Cell_Line
	Aorta
	H1_Derived_Neuronal_Progenitor_Cultured_Cells
	HUES6_Cell_Line
	H1_BMP4_Derived_Mesendoderm_Cultured_Cells
	CD4+_CD25-_IL17+_PMA-Ionomcyin_stimulated_Th17_Primary_Cells
	iPS-20b_Cell_Line
	Brain_Anterior_Caudate
	Mobilized_CD34_Primary_Cells_Male
	Colonic_Mucosa
	H9_Derived_Neuronal_Progenitor_Cultured_Cells
	Left_Ventricle
	Dnd41_TCell_Leukemia
	Thymus
	HSMM_Skeletal_Muscle_Myoblasts
	Penis_Foreskin_Fibroblast_Primary_Cells_skin01
	HepG2_Hepatocellular_Carcinoma
	Muscle_Satellite_Cultured_Cells
	HUVEC_Umbilical_Vein_Endothelial_Cells
	Adult_Liver
	HMEC_Mammary_Epithelial
	Skeletal_Muscle_Male
	Small_Intestine
	Sigmoid_Colon
	Fetal_Lung
	CD3_Primary_Cells_Cord_BI
	Osteoblasts
	CD8_Naive_Primary_Cells
	GM12878_Lymphoblastoid
	Bone_Marrow_Derived_Mesenchymal_Stem_Cell_Cultured_Cells
	Penis_Foreskin_Melanocyte_Primary_Cells_skin03
	Duodenum_Smooth_Muscle
	CD4+_CD25-_IL17-_PMA-Ionomycin_stimulated_MACS_purified_Th_Primary_Cells
	HeLa-S3_Cervical_Carcinoma
	iPS-15b_Cell_Line
	Pancreatic_Islets
	Chondrocytes_from_Bone_Marrow_Derived_Mesenchymal_Stem_Cell_Cultured_Cells
	A549_EtOH_0.02pct_Lung_Carcinoma
	Fetal_Muscle_Leg
	Placenta_Amnion
	Penis_Foreskin_Fibroblast_Primary_Cells_skin02
	CD4+_CD25int_CD127+_Tmem_Primary_Cells
	Right_Atrium
	Stomach_Smooth_Muscle
	CD4+_CD25-_Th_Primary_Cells
	NHEK-Epidermal_Keratinocytes
	Brain_Angular_Gyrus
	Rectal_Mucosa.Donor_29
	Fetal_Placenta
	Fetal_Intestine_Small
	Penis_Foreskin_Keratinocyte_Primary_Cells_skin02
	Breast_Myoepithelial_Cells
	CD14_Primary_Cells
	H1_BMP4_Derived_Trophoblast_Cultured_Cells
	Fetal_Adrenal_Gland
	CD4+_CD25+_CD127-_Treg_Primary_Cells
	HUES48_Cell_Line
	Fetal_Intestine_Large
	HSMMtube_Skeletal_Muscle_Myotubes_Derived_from_HSMM
	NHDF-Ad_Adult_Dermal_Fibroblasts
	Brain_Hippocampus_Middle
	Esophagus
	Ovary
	iPS_DF_19.11_Cell_Line
	NHLF_Lung_Fibroblasts
	Psoas_Muscle
	CD34_Cultured_Cells
	CD4_Naive_Primary_Cells
	Brain_Cingulate_Gyrus
	Fetal_Brain_Female
	ES-WA7_Cell_Line
	CD3_Primary_Cells_Peripheral_UW
	Gastric
	Fetal_Heart
	Mesenchymal_Stem_Cell_Derived_Adipocyte_Cultured_Cells
	Brain_Germinal_Matrix
	Rectal_Mucosa.Donor_31
	HUES64_Cell_Line
	Stomach_Mucosa
	Neurosphere_Cultured_Cells_Ganglionic_Eminence_Derived
	Fetal_Thymus
	Fetal_Kidney
	Penis_Foreskin_Melanocyte_Primary_Cells_skin01
	Neurosphere_Cultured_Cells_Cortex_Derived
	Fetal_Brain_Male
	CD8_Memory_Primary_Cells
	Colon_Smooth_Muscle
	Adipose_Nuclei
	ES-I3_Cell_Line
	CD19_Primary_Cells_Peripheral_UW
	CD4_Memory_Primary_Cells
	Duodenum_Mucosa
	Mobilized_CD34_Primary_Cells_Female
	CD19_Primary_Cells_Cord_BI
	iPS_DF_6.9_Cell_Line
	Breast_vHMEC
	Brain_Inferior_Temporal_Lobe
	Penis_Foreskin_Keratinocyte_Primary_Cells_skin03
	Right_Ventricle
	Spleen
	CD34_Primary_Cells
	iPS-18_Cell_Line
	H9_Derived_Neuron_Cultured_Cells
	CD4+_CD25-_CD45RA+_Naive_Primary_Cells
	CD4+_CD25-_CD45RO+_Memory_Primary_Cells
	Rectal_Smooth_Muscle
	Pancreas
	Lung
	Monocytes-CD14+_RO01746
	Brain_Substantia_Nigra
	CD56_Primary_Cells
	CD15_Primary_Cells
	Skeletal_Muscle_Female

GROUP
	ES-deriv
	Blood & T-cell
	ESC
	Muscle
	ENCODE2012
	Digestive
	Brain
	Mesench
	IMR90
	Heart
	iPSC
	HSC & B-cell
	Thymus
	Epithelial
	Myosat
	Other
	Sm. Muscle
	Neurosph
	Adipose

dataType
	broadPeak
	bed

CLASS
	Class 2
	Class 4
	Class 1
	Class 5
	ENCODE
	Class 3

AGE
	CL
	28Y, 27Y
	16GW
	75Y, 81Y
	31Y, 59Y, 41Y
	34Y
	Unknown
	42Y
	73Y
	3Y, 34Y
	3Y
	0Y
	54Y
	Fetus (GW unknown)
	57Y, unknown, unkown, unkown
	59Y, 73Y
	Unknown, Unknown, 45Y
	15GW
	84Y
	50Y
	36Y,33Y
	21Y, 37Y
	13GW
	81Y, 73Y
	30Y
	17GW. 17GW
	14GW, 15GW, 13GW
	20GW
	61Y
	59Y
	17GW
	17GW, 17GW
	56Y, 77Y
	49Y, 59Y, 41Y, 25Y, 81Y
	76Y
	18Y
	72Y

LAB
	BI
	UCSF-UBC
	UCSD
	UW
	BI;UCSD;UCSF-UBC
	BI;UCSF-UBC

ID
	182
	175
	529
	138
	708
	988
	729
	591
	524
	292
	288
	99
	1008
	186
	235
	23
	543
	188
	114
	286
	201
	157
	46
	28
	399
	261
	560
	463
	131
	609
	165
	96
	756
	897
	163
	869
	949
	488
	927
	130
	227
	470
	224
	970
	549
	945
	839
	851
	829
	700
	343
	830
	20
	1054
	431
	911
	299
	519
	629
	395
	919
	243
	176
	692
	448
	522
	880
	260
	714
	1049
	144
	783
	136
	48
	929
	495
	200
	716
	420
	816
	867
	817
	404
	1029
	711
	554
	405
	797
	1028
	722
	696
	229
	675
	497
	702
	149
	303
	523
	316
	81
	865
	642
	699
	411
	97
	194
	835
	530
	670
	943
	964
	259
	54
	294
	1019
	582
	239
	631
	481
	604
	715
	457
	90
	766
	223
	430
	271
	1037
	595
	939
	230
	893
	862
	91
	256
	218
	792
	151
	979
	365
	639
	987
	978
	781
	72
	17
	374
	571
	88
	290
	654
	12
	110
	551
	640
	35
	349
	174
	352
	306
	920
	746
	832
	795
	658
	281
	152
	575
	57
	802
	698
	417
	458
	210
	139
	49
	518
	315
	860
	478
	941
	697
	242
	1045
	460
	739
	976
	687
	881
	512
	222
	940
	834
	937
	203
	605
	634
	665
	41
	105
	638
	951
	406
	652
	472
	244
	645
	285
	437
	115
	515
	199
	82
	542
	650
	521
	434
	85
	612
	548
	479
	1051
	102
	856
	461
	276
	344
	65
	482
	473
	771
	828
	954
	86
	498
	373
	579
	240
	555
	459
	179
	187
	705
	532
	577
	866
	864
	103
	469
	43
	467
	447
	410
	363
	446
	581
	348
	1
	337
	500
	368
	643
	70
	967
	3
	439
	78
	946
	618
	942
	627
	733
	741
	1017
	361
	449
	753
	154
	538
	217
	648
	332
	393
	74
	269
	108
	93
	621
	407
	311
	1022
	982
	204
	632
	55
	535
	884
	589
	75
	118
	950
	564
	335
	509
	52
	974
	825
	161
	934
	50
	984
	727
	112
	520
	1026
	291
	931
	125
	331
	321
	576
	874
	372
	752
	444
	584
	193
	668
	496
	220
	265
	226
	287
	991
	900
	888
	360
	661
	246
	868
	622
	585
	362
	1023
	25
	533
	197
	660
	111
	906
	960
	314
	414
	250
	170
	69
	254
	384
	905
	503
	177
	178
	236
	468
	168
	1010
	37
	15
	721
	607
	630
	248
	1018
	328
	730
	277
	1006
	390
	483
	814
	129
	539
	544
	100
	1050
	896
	140
	34
	305
	262
	19
	251
	39
	101
	726
	402
	164
	583
	338
	728
	356
	567
	556
	989
	787
	464
	791
	933
	772
	566
	26
	701
	526
	778
	212
	916
	380
	330
	625
	382
	279
	510
	806
	506
	354
	490
	850
	42
	137
	588
	763
	1033
	671
	225
	162
	553
	1040
	1000
	776
	932
	681
	769
	935
	345
	517
	656
	886
	211
	207
	169
	852
	233
	158
	774
	812
	312
	275
	433
	557
	216
	558
	76
	760
	838
	484
	600
	723
	456
	4
	815
	132
	545
	796
	171
	813
	773
	355
	724
	955
	770
	608
	606
	928
	885
	1036
	150
	422
	615
	489
	297
	667
	561
	324
	191
	412
	466
	477
	762
	837
	1042
	208
	400
	525
	804
	663
	296
	56
	485
	1020
	672
	784
	1012
	409
	845
	809
	30
	38
	47
	808
	983
	594
	693
	603
	494
	570
	475
	732
	350
	754
	938
	915
	655
	18
	725
	153
	704
	847
	966
	317
	596
	427
	117
	758
	221
	569
	357
	593
	392
	977
	682
	379
	736
	133
	980
	1041
	376
	192
	213
	377
	358
	451
	1056
	963
	1052
	578
	559
	504
	678
	944
	821
	13
	800
	910
	679
	268
	160
	777
	996
	957
	818
	273
	1046
	386
	180
	981
	550
	908
	455
	562
	689
	688
	889
	282
	289
	534
	635
	514
	487
	789
	824
	501
	720
	79
	8
	219
	669
	10
	662
	11
	295
	196
	882
	644
	930
	471
	156
	9
	172
	903
	684
	33
	649
	992
	258
	1035
	768
	703
	552
	833
	1001
	891
	537
	598
	572
	394
	926
	310
	626
	820
	266
	707
	516
	904
	59
	346
	53
	786
	339
	113
	274
	870
	142
	89
	887
	341
	623
	327
	436
	502
	283
	370
	167
	308
	300
	683
	134
	901
	936
	2
	986
	441
	718
	1007
	147
	120
	855
	993
	586
	1055
	424
	610
	320
	301
	1057
	80
	309
	953
	995
	685
	124
	755
	106
	87
	126
	40
	333
	719
	779
	1048
	267
	871
	32
	231
	836
	5
	848
	805
	508
	14
	956
	912
	1002
	994
	677
	443
	997
	734
	1038
	416
	628
	127
	709
	92
	854
	202
	872
	146
	284
	465
	574
	307
	973
	391
	690
	843
	710
	121
	116
	403
	676
	1015
	1014
	892
	601
	1030
	853
	302
	695
	272
	155
	749
	664
	398
	861
	717
	902
	452
	747
	71
	742
	423
	895
	31
	788
	1011
	617
	214
	77
	22
	347
	45
	228
	453
	143
	907
	511
	378
	513
	67
	737
	765
	894
	1013
	109
	189
	66
	637
	445
	1005
	918
	841
	318
	592
	965
	909
	587
	234
	68
	278
	740
	1053
	858
	540
	767
	636
	107
	245
	122
	326
	73
	98
	238
	198
	304
	351
	826
	811
	883
	599
	486
	16
	493
	396
	252
	476
	340
	998
	999
	206
	531
	546
	454
	62
	1034
	141
	1009
	641
	123
	195
	810
	780
	51
	775
	798
	647
	879
	713
	890
	877
	95
	342
	1024
	135
	44
	735
	1031
	322
	875
	1021
	247
	744
	388
	29
	27
	270
	474
	148
	507
	63
	428
	923
	298
	782
	181
	491
	6
	366
	793
	205
	750
	831
	731
	573
	1032
	764
	209
	1003
	674
	849
	36
	7
	985
	738
	1004
	803
	385
	921
	128
	613
	694
	799
	952
	686
	948
	1043
	846
	651
	389
	1044
	383
	1047
	249
	602
	536
	971
	450
	657
	624
	145
	761
	319
	840
	232
	691
	759
	336
	898
	614
	438
	253
	748
	620
	401
	419
	359
	590
	61
	84
	462
	159
	857
	947
	334
	757
	646
	975
	969
	541
	706
	237
	924
	528
	499
	1016
	166
	619
	440
	387
	435
	94
	83
	429
	263
	255
	972
	313
	616
	790
	353
	323
	21
	60
	819
	743
	1039
	958
	367
	827
	990
	183
	673
	859
	807
	873
	899
	680
	794
	568
	914
	801
	745
	492
	173
	190
	397
	432
	580
	425
	104
	611
	563
	666
	822
	371
	878
	876
	659
	751
	24
	565
	1025
	968
	925
	1027
	844
	325
	597
	959
	369
	913
	293
	119
	823
	505
	653
	961
	418
	329
	712
	527
	215
	408
	917
	58
	842
	264
	633
	184
	426
	381
	413
	415
	421
	375
	922
	863
	962
	785
	185
	241
	64
	280
	480
	442
	547
	257
	364

Standardized_Epigenome_name
	hESC Derived CD56+ Ectoderm Cultured Cells
	hESC Derived CD184+ Endoderm Cultured Cells
	Primary mononuclear cells from peripheral blood
	H9 Cells
	Fetal Muscle Trunk
	K562 Leukemia Cells
	Fetal Stomach
	Brain_Dorsolateral_Prefrontal_Cortex
	Adipose Derived Mesenchymal Stem Cell Cultured Cells
	ES-UCSF4  Cells
	H1 Derived Mesenchymal Stem Cells
	NH-A Astrocytes Primary Cells
	hESC Derived CD56+ Mesoderm Cultured Cells
	IMR90 fetal lung fibroblasts Cell Line
	H1 Cells
	Aorta
	H1 Derived Neuronal Progenitor Cultured Cells
	HUES6 Cells
	H1 BMP4 Derived Mesendoderm Cultured Cells
	Primary T helper 17 cells PMA-I stimulated
	iPS-20b Cells
	Brain Anterior Caudate
	Primary hematopoietic stem cells G-CSF-mobilized Male
	Colonic Mucosa
	H9 Derived Neuronal Progenitor Cultured Cells
	Left Ventricle
	Dnd41 TCell Leukemia Cell Line
	Thymus
	HSMM Skeletal Muscle Myoblasts Cells
	Foreskin Fibroblast Primary Cells skin01
	HepG2 Hepatocellular Carcinoma Cell Line
	Muscle Satellite Cultured Cells
	HUVEC Umbilical Vein Endothelial Primary Cells
	Liver
	HMEC Mammary Epithelial Primary Cells
	Skeletal Muscle Male
	Small Intestine
	Sigmoid Colon
	Fetal Lung
	Primary T cells from cord blood
	Osteoblast Primary Cells
	Primary T CD8+ naive cells from peripheral blood
	GM12878 Lymphoblastoid Cells
	Bone Marrow Derived Cultured Mesenchymal Stem Cells
	Foreskin Melanocyte Primary Cells skin03
	Duodenum Smooth Muscle
	Primary T helper cells PMA-I stimulated
	HeLa-S3 Cervical Carcinoma Cell Line
	iPS-15b Cells
	Pancreatic Islets
	Mesenchymal Stem Cell Derived Chondrocyte Cultured Cells
	A549 EtOH 0.02pct Lung Carcinoma Cell Line
	Fetal Muscle Leg
	Placenta Amnion
	Foreskin Fibroblast Primary Cells skin02
	Primary T cells effector/memory enriched from peripheral blood
	Right Atrium
	Stomach Smooth Muscle
	Primary T helper cells from peripheral blood
	NHEK-Epidermal Keratinocyte Primary Cells
	Brain Angular Gyrus
	Rectal Mucosa Donor 29
	Placenta
	Fetal Intestine Small
	Foreskin Keratinocyte Primary Cells skin02
	Breast Myoepithelial Primary Cells
	Primary monocytes from peripheral blood
	H1 BMP4 Derived Trophoblast Cultured Cells
	Fetal Adrenal Gland
	Primary T regulatory cells from peripheral blood
	HUES48 Cells
	Fetal Intestine Large
	HSMM cell derived Skeletal Muscle Myotubes Cells
	NHDF-Ad Adult Dermal Fibroblast Primary Cells
	Brain Hippocampus Middle
	Esophagus
	Ovary
	iPS DF 19.11 Cells
	NHLF Lung Fibroblast Primary Cells
	Psoas Muscle
	Primary hematopoietic stem cells short term culture
	Primary T helper naive cells from peripheral blood
	Brain Cingulate Gyrus
	Fetal Brain Female
	ES-WA7 Cells
	Primary T cells from peripheral blood
	Gastric
	Fetal Heart
	Mesenchymal Stem Cell Derived Adipocyte Cultured Cells
	Brain Germinal Matrix
	Rectal Mucosa Donor 31
	HUES64 Cells
	Stomach Mucosa
	Ganglion Eminence derived primary cultured neurospheres
	Fetal Thymus
	Fetal Kidney
	Foreskin Melanocyte Primary Cells skin01
	Cortex derived primary cultured neurospheres
	Fetal Brain Male
	Primary T CD8+ memory cells from peripheral blood
	Colon Smooth Muscle
	Adipose Nuclei
	ES-I3 Cells
	Primary B cells from peripheral blood
	Primary T helper memory cells from peripheral blood 2
	Duodenum Mucosa
	Primary hematopoietic stem cells G-CSF-mobilized Female
	Primary B cells from cord blood
	iPS DF 6.9 Cells
	Breast variant Human Mammary Epithelial Cells (vHMEC)
	Brain Inferior Temporal Lobe
	Foreskin Keratinocyte Primary Cells skin03
	Right Ventricle
	Spleen
	Primary hematopoietic stem cells
	iPS-18 Cells
	H9 Derived Neuron Cultured Cells
	Primary T helper naive cells from peripheral blood
	Primary T helper memory cells from peripheral blood 1
	Rectal Smooth Muscle
	Pancreas
	Lung
	Monocytes-CD14+ RO01746 Primary Cells
	Brain Substantia Nigra
	Primary Natural Killer cells from peripheral blood
	Primary neutrophils from peripheral blood
	Skeletal Muscle Female

SOLID_/_LIQUID
	NA
	LIQUID
	SOLID

Single_Donor_(SD)_/Composite_(C)
	SD
	C

Epigenome_ID_(EID)
	E012
	E011
	E062
	E008
	E089
	E123
	E092
	E073
	E025
	E024
	E006
	E125
	E013
	E017
	E003
	E065
	E007
	E015
	E004
	E042
	E020
	E068
	E051
	E075
	E009
	E095
	E115
	E112
	E120
	E055
	E118
	E052
	E122
	E066
	E119
	E107
	E109
	E106
	E088
	E033
	E129
	E047
	E116
	E026
	E061
	E078
	E041
	E117
	E018
	E087
	E049
	E114
	E090
	E099
	E056
	E045
	E104
	E111
	E043
	E127
	E067
	E101
	E091
	E085
	E057
	E027
	E029
	E005
	E080
	E044
	E014
	E084
	E121
	E126
	E071
	E079
	E097
	E022
	E128
	E100
	E036
	E038
	E069
	E082
	E002
	E034
	E094
	E083
	E023
	E070
	E102
	E016
	E110
	E054
	E093
	E086
	E059
	E053
	E081
	E048
	E076
	E063
	E001
	E032
	E037
	E077
	E050
	E031
	E021
	E028
	E072
	E058
	E105
	E113
	E035
	E019
	E010
	E039
	E040
	E103
	E098
	E096
	E124
	E074
	E046
	E030
	E108

assay
	H3K27ac
	H3K9me3
	H3K27me3
	H2BK120ac
	H3K4me3
	DNase.hotspot.broad
	H3K4me1
	H3K36me3
	H3K14ac
	H3K56ac
	H4K8ac
	H2BK15ac
	H3K9ac
	DNase.hotspot.fdr0.01.broad
	H3K9me1
	H3K4me2
	H4K20me1
	H2BK20ac
	H3K79me2
	H2A.Z
	H3K4ac
	H3K79me1
	H3K18ac
	H2BK5ac
	H2BK12ac
	H2AK5ac
	H4K91ac
	H3K23ac
	H2AK9ac
	H4K5ac
	H3T11ph
	H3K23me2
	H4K12ac

SEX
	Male
	Female
	Mixed
	Unknown
	Female/Unknown
	Male/Unknown

TYPE
	ESCDerived
	PrimaryCell
	PrimaryCulture
	PrimaryTissue
	CellLine

ORDER
	19
	20
	24
	3
	78
	121
	89
	70
	49
	9
	23
	123
	18
	1
	8
	84
	15
	5
	21
	32
	10
	66
	41
	94
	16
	82
	113
	62
	118
	52
	116
	51
	120
	108
	117
	77
	92
	93
	103
	27
	127
	37
	114
	47
	55
	85
	31
	115
	12
	105
	48
	112
	79
	101
	53
	26
	81
	88
	29
	125
	69
	95
	107
	90
	56
	59
	38
	22
	106
	28
	6
	91
	119
	124
	64
	99
	104
	14
	126
	75
	43
	36
	67
	72
	2
	25
	100
	80
	50
	71
	96
	7
	97
	60
	63
	102
	54
	61
	73
	35
	86
	74
	4
	44
	34
	98
	42
	39
	13
	58
	68
	57
	83
	111
	40
	11
	17
	30
	33
	87
	109
	110
	122
	65
	45
	46
	76

ETHNICITY
	NA
	Caucasian, Indian/Arabian
	Unknown
	Caucasian
	Caucasian/African American, Caucasian
	Caucasian/African American
	Unknown, Unknown, Caucasian
	African American
	African-American, African-American
	Hispanic, Unknown
	Caucasian, Hispanic

